{
	"info": {
		"_postman_id": "5abb9f23-977b-4ca2-ab6e-dd8b61d0129b",
		"name": "s35",
		"schema": "https://schema.getpostman.com/json/collection/v2.1.0/collection.json",
		"_exporter_id": "26110659"
	},
	"item": [
		{
			"name": "New task",
			"request": {
				"method": "POST",
				"header": [],
				"body": {
					"mode": "raw",
					"raw": "{\r\n    \"name\": \"\"\r\n}",
					"options": {
						"raw": {
							"language": "json"
						}
					}
				},
				"url": {
					"raw": "localhost:4000/tasks",
					"host": [
						"localhost"
					],
					"port": "4000",
					"path": [
						"tasks"
					]
				}
			},
			"response": []
		},
		{
			"name": "All tasks",
			"protocolProfileBehavior": {
				"disableBodyPruning": true
			},
			"request": {
				"method": "GET",
				"header": [],
				"body": {
					"mode": "raw",
					"raw": "{\r\n    \"name\": \"\"\r\n}",
					"options": {
						"raw": {
							"language": "json"
						}
					}
				},
				"url": {
					"raw": "localhost:4000/tasks",
					"host": [
						"localhost"
					],
					"port": "4000",
					"path": [
						"tasks"
					]
				}
			},
			"response": []
		},
		{
			"name": "Sign-up",
			"request": {
				"method": "POST",
				"header": []
			},
			"response": []
		},
		{
			"name": "All users",
			"request": {
				"method": "GET",
				"header": [],
				"url": {
					"raw": "localhost:4000/signup",
					"host": [
						"localhost"
					],
					"port": "4000",
					"path": [
						"signup"
					]
				}
			},
			"response": []
		}
	]
}