[
	{
		"_id": "customer-00001",
		"firstName": "Adrian",
		"lastName": "Tamayo",
		"email": "atamayo@gmail.com",
		"password": "password123",
		"isAdmin": false,
		"mobileNumber": "+639123456789"
	},
	{
		"_id": "customer-00002",
		"firstName": "Lee",
		"lastName": "Sang-hyeok",
		"email": "faker@gmail.com",
		"password": "lol123",
		"isAdmin": false,
		"mobileNumber": "+639717171717"
	},
	{
		"_id": "admin-0001",
		"firstName": "Min-Liang",
		"lastName": "Tan",
		"email": "mltan@razerzone.com",
		"password": "razerceo",
		"isAdmin": true,
		"mobileNumber": "+639999999999"
	}
]